Width:Height:Num_frames:strat:buffer-size:compute_time:operation:ini_time:Block-size
1280:720:200:OCL:buffer-10:13.896713:record+gauss:0.496610:32
1280:720:200:OCL:buffer-10:14.331567:record+gauss:0.498691:32
1280:720:200:OCL:buffer-10:14.356459:record+gauss:0.488714:32
1280:720:200:OCL:buffer-10:14.347507:record+gauss:0.493660:32
1280:720:200:OCL:buffer-10:14.382595:record+gauss:0.477260:32
1280:720:200:OCL:buffer-10:14.459486:record+gauss:0.494132:32
1280:720:200:OCL:buffer-10:14.464989:record+gauss:0.487212:32
1280:720:200:OCL:buffer-10:14.441823:record+gauss:0.486802:32
1280:720:200:OCL:buffer-10:14.409806:record+gauss:0.487497:32
1280:720:200:OCL:buffer-10:14.483708:record+gauss:0.487688:32
1280:720:200:OCL:buffer-10:14.448938:record+gauss:0.505501:32
1280:720:200:OCL:buffer-10:14.438200:record+gauss:0.498501:32
1280:720:200:OCL:buffer-10:13.591199:record+gauss:0.490469:64
1280:720:200:OCL:buffer-10:13.522069:record+gauss:0.486168:64
1280:720:200:OCL:buffer-10:13.784205:record+gauss:0.493450:64
1280:720:200:OCL:buffer-10:13.591248:record+gauss:0.484462:64
1280:720:200:OCL:buffer-10:13.552065:record+gauss:0.501944:64
1280:720:200:OCL:buffer-10:13.577744:record+gauss:0.489193:64
1280:720:200:OCL:buffer-10:13.601840:record+gauss:0.501616:64
1280:720:200:OCL:buffer-10:13.585726:record+gauss:0.488290:64
1280:720:200:OCL:buffer-10:13.640635:record+gauss:0.486320:64
1280:720:200:OCL:buffer-10:13.569407:record+gauss:0.493042:64
1280:720:200:OCL:buffer-10:13.530854:record+gauss:0.494534:64
1280:720:200:OCL:buffer-10:13.631144:record+gauss:0.486037:64
1280:720:200:OCL:buffer-10:13.230341:record+gauss:0.489011:128
1280:720:200:OCL:buffer-10:13.292117:record+gauss:0.485785:128
1280:720:200:OCL:buffer-10:13.241222:record+gauss:0.497654:128
1280:720:200:OCL:buffer-10:13.238587:record+gauss:0.488793:128
1280:720:200:OCL:buffer-10:13.241100:record+gauss:0.487608:128
1280:720:200:OCL:buffer-10:13.273375:record+gauss:0.488666:128
1280:720:200:OCL:buffer-10:13.236958:record+gauss:0.485728:128
1280:720:200:OCL:buffer-10:13.219822:record+gauss:0.486674:128
1280:720:200:OCL:buffer-10:13.230183:record+gauss:0.488358:128
1280:720:200:OCL:buffer-10:13.395517:record+gauss:0.489370:128
1280:720:200:OCL:buffer-10:13.220744:record+gauss:0.495097:128
1280:720:200:OCL:buffer-10:13.221136:record+gauss:0.488304:128
1280:720:200:OCL:buffer-10:13.089855:record+gauss:0.488472:256
1280:720:200:OCL:buffer-10:13.109188:record+gauss:0.494848:256
1280:720:200:OCL:buffer-10:13.104372:record+gauss:0.492559:256
1280:720:200:OCL:buffer-10:13.168967:record+gauss:0.492930:256
1280:720:200:OCL:buffer-10:13.120083:record+gauss:0.492666:256
1280:720:200:OCL:buffer-10:13.103394:record+gauss:0.492754:256
1280:720:200:OCL:buffer-10:13.101382:record+gauss:0.492603:256
1280:720:200:OCL:buffer-10:13.073614:record+gauss:0.493615:256
1280:720:200:OCL:buffer-10:13.092413:record+gauss:0.485893:256
1280:720:200:OCL:buffer-10:13.095580:record+gauss:0.486196:256
1280:720:200:OCL:buffer-10:13.100456:record+gauss:0.493102:256
1280:720:200:OCL:buffer-10:13.139564:record+gauss:0.496288:256
1280:720:200:OCL:buffer-10:12.987055:record+gauss:0.487977:512
1280:720:200:OCL:buffer-10:12.969209:record+gauss:0.490169:512
1280:720:200:OCL:buffer-10:12.973248:record+gauss:0.494282:512
1280:720:200:OCL:buffer-10:12.952545:record+gauss:0.494083:512
1280:720:200:OCL:buffer-10:12.983559:record+gauss:0.495455:512
1280:720:200:OCL:buffer-10:12.929686:record+gauss:0.485902:512
1280:720:200:OCL:buffer-10:12.935212:record+gauss:0.497704:512
1280:720:200:OCL:buffer-10:12.927459:record+gauss:0.485977:512
1280:720:200:OCL:buffer-10:12.935986:record+gauss:0.490901:512
1280:720:200:OCL:buffer-10:12.972579:record+gauss:0.485477:512
1280:720:200:OCL:buffer-10:12.984477:record+gauss:0.496851:512
1280:720:200:OCL:buffer-10:12.924346:record+gauss:0.485996:512
1280:720:200:OCL:buffer-10:12.848367:record+gauss:0.485517:1024
1280:720:200:OCL:buffer-10:12.859507:record+gauss:0.498173:1024
1280:720:200:OCL:buffer-10:12.861771:record+gauss:0.493530:1024
1280:720:200:OCL:buffer-10:12.856817:record+gauss:0.490330:1024
1280:720:200:OCL:buffer-10:12.819285:record+gauss:0.487052:1024
1280:720:200:OCL:buffer-10:12.877695:record+gauss:0.496088:1024
1280:720:200:OCL:buffer-10:12.861288:record+gauss:0.485406:1024
1280:720:200:OCL:buffer-10:12.842321:record+gauss:0.485214:1024
1280:720:200:OCL:buffer-10:12.862881:record+gauss:0.487436:1024
1280:720:200:OCL:buffer-10:12.919868:record+gauss:0.488243:1024
1280:720:200:OCL:buffer-10:12.872268:record+gauss:0.491991:1024
1280:720:200:OCL:buffer-10:12.908503:record+gauss:0.494003:1024
1280:720:200:OCL:buffer-10:6.683353:record+grayscale:0.479535:32
1280:720:200:OCL:buffer-10:6.680347:record+grayscale:0.479751:32
1280:720:200:OCL:buffer-10:6.676433:record+grayscale:0.487679:32
1280:720:200:OCL:buffer-10:6.679544:record+grayscale:0.483450:32
1280:720:200:OCL:buffer-10:6.670831:record+grayscale:0.481436:32
1280:720:200:OCL:buffer-10:6.672598:record+grayscale:0.486044:32
1280:720:200:OCL:buffer-10:6.681450:record+grayscale:0.479725:32
1280:720:200:OCL:buffer-10:6.685287:record+grayscale:0.442228:32
1280:720:200:OCL:buffer-10:6.683437:record+grayscale:0.483794:32
1280:720:200:OCL:buffer-10:6.676480:record+grayscale:0.477368:32
1280:720:200:OCL:buffer-10:6.672574:record+grayscale:0.482376:32
1280:720:200:OCL:buffer-10:6.656095:record+grayscale:0.490010:32
1280:720:200:OCL:buffer-10:6.681432:record+grayscale:0.492883:64
1280:720:200:OCL:buffer-10:6.676765:record+grayscale:0.492452:64
1280:720:200:OCL:buffer-10:6.673212:record+grayscale:0.482689:64
1280:720:200:OCL:buffer-10:6.678868:record+grayscale:0.478874:64
1280:720:200:OCL:buffer-10:6.670786:record+grayscale:0.481449:64
1280:720:200:OCL:buffer-10:6.677864:record+grayscale:0.480717:64
1280:720:200:OCL:buffer-10:6.675779:record+grayscale:0.477579:64
1280:720:200:OCL:buffer-10:6.675969:record+grayscale:0.478528:64
1280:720:200:OCL:buffer-10:6.644482:record+grayscale:0.477153:64
1280:720:200:OCL:buffer-10:6.676860:record+grayscale:0.482849:64
1280:720:200:OCL:buffer-10:6.676218:record+grayscale:0.487209:64
1280:720:200:OCL:buffer-10:6.675802:record+grayscale:0.479858:64
1280:720:200:OCL:buffer-10:6.678286:record+grayscale:0.478202:128
1280:720:200:OCL:buffer-10:6.678220:record+grayscale:0.488978:128
1280:720:200:OCL:buffer-10:6.670450:record+grayscale:0.482096:128
1280:720:200:OCL:buffer-10:6.675023:record+grayscale:0.487535:128
1280:720:200:OCL:buffer-10:6.675672:record+grayscale:0.488005:128
1280:720:200:OCL:buffer-10:6.682265:record+grayscale:0.476936:128
1280:720:200:OCL:buffer-10:6.671865:record+grayscale:0.479565:128
1280:720:200:OCL:buffer-10:6.639527:record+grayscale:0.482988:128
1280:720:200:OCL:buffer-10:6.686202:record+grayscale:0.485807:128
1280:720:200:OCL:buffer-10:6.669488:record+grayscale:0.481734:128
1280:720:200:OCL:buffer-10:6.674676:record+grayscale:0.488311:128
1280:720:200:OCL:buffer-10:6.677011:record+grayscale:0.477554:128
1280:720:200:OCL:buffer-10:6.634575:record+grayscale:0.479726:256
1280:720:200:OCL:buffer-10:6.674996:record+grayscale:0.485458:256
1280:720:200:OCL:buffer-10:6.681991:record+grayscale:0.479950:256
1280:720:200:OCL:buffer-10:6.678496:record+grayscale:0.485187:256
1280:720:200:OCL:buffer-10:6.670405:record+grayscale:0.479512:256
1280:720:200:OCL:buffer-10:6.670651:record+grayscale:0.486408:256
1280:720:200:OCL:buffer-10:6.676380:record+grayscale:0.477714:256
1280:720:200:OCL:buffer-10:6.686479:record+grayscale:0.481867:256
1280:720:200:OCL:buffer-10:6.684587:record+grayscale:0.477151:256
1280:720:200:OCL:buffer-10:6.685033:record+grayscale:0.478813:256
1280:720:200:OCL:buffer-10:6.669524:record+grayscale:0.481934:256
1280:720:200:OCL:buffer-10:6.651841:record+grayscale:0.487421:256
1280:720:200:OCL:buffer-10:6.684761:record+grayscale:0.484222:512
1280:720:200:OCL:buffer-10:6.679827:record+grayscale:0.486565:512
1280:720:200:OCL:buffer-10:6.682682:record+grayscale:0.482989:512
1280:720:200:OCL:buffer-10:6.676340:record+grayscale:0.480093:512
1280:720:200:OCL:buffer-10:6.674425:record+grayscale:0.480340:512
1280:720:200:OCL:buffer-10:6.677620:record+grayscale:0.480886:512
1280:720:200:OCL:buffer-10:6.680530:record+grayscale:0.479842:512
1280:720:200:OCL:buffer-10:6.679588:record+grayscale:0.480145:512
1280:720:200:OCL:buffer-10:6.694398:record+grayscale:0.477162:512
1280:720:200:OCL:buffer-10:6.677554:record+grayscale:0.479586:512
1280:720:200:OCL:buffer-10:6.653848:record+grayscale:0.489728:512
1280:720:200:OCL:buffer-10:6.695758:record+grayscale:0.484525:512
1280:720:200:OCL:buffer-10:6.686909:record+grayscale:0.484773:1024
1280:720:200:OCL:buffer-10:6.683712:record+grayscale:0.476736:1024
1280:720:200:OCL:buffer-10:6.689116:record+grayscale:0.436251:1024
1280:720:200:OCL:buffer-10:6.684318:record+grayscale:0.456333:1024
1280:720:200:OCL:buffer-10:6.680065:record+grayscale:0.487529:1024
1280:720:200:OCL:buffer-10:6.674655:record+grayscale:0.478145:1024
1280:720:200:OCL:buffer-10:6.674597:record+grayscale:0.478370:1024
1280:720:200:OCL:buffer-10:6.678588:record+grayscale:0.478886:1024
1280:720:200:OCL:buffer-10:6.676830:record+grayscale:0.479703:1024
1280:720:200:OCL:buffer-10:6.643857:record+grayscale:0.476725:1024
1280:720:200:OCL:buffer-10:6.681277:record+grayscale:0.480505:1024
1280:720:200:OCL:buffer-10:6.676797:record+grayscale:0.481908:1024