Width:Height:num_frames:parallelism:Strategy:compute_time:operation:initialitation_time
640:480:200:data-parallelism:buffer-20:39.064395:record+gauss:4.195548
640:480:200:data-parallelism:buffer-20:39.259049:record+gauss:4.190758
640:480:200:data-parallelism:buffer-20:39.557837:record+gauss:4.184345
640:480:200:data-parallelism:buffer-20:39.037977:record+gauss:4.278691
640:480:200:data-parallelism:buffer-20:39.231547:record+gauss:4.17598
640:480:200:data-parallelism:buffer-20:39.148807:record+gauss:4.38419
640:480:200:data-parallelism:buffer-20:39.20749:record+gauss:4.204155
640:480:200:data-parallelism:buffer-20:39.403399:record+gauss:4.197747
640:480:200:data-parallelism:buffer-20:39.030558:record+gauss:4.282666
640:480:200:data-parallelism:buffer-20:39.320627:record+gauss:4.231933
640:480:200:data-parallelism:buffer-20:39.067462:record+gauss:4.224953
640:480:200:data-parallelism:buffer-20:39.355539:record+gauss:4.605561
320:240:200:data-parallelism:buffer-20:10.787603:record+gauss:4.566584
320:240:200:data-parallelism:buffer-20:11.30259:record+gauss:4.206525
320:240:200:data-parallelism:buffer-20:10.78888:record+gauss:4.167618
320:240:200:data-parallelism:buffer-20:11.731166:record+gauss:3.736963
320:240:200:data-parallelism:buffer-20:10.787422:record+gauss:4.578655
320:240:200:data-parallelism:buffer-20:10.832472:record+gauss:4.270056
320:240:200:data-parallelism:buffer-20:11.85712:record+gauss:4.243914
160:120:200:data-parallelism:buffer-20:9.018479:record+gauss:4.567145
160:120:200:data-parallelism:buffer-20:9.863165:record+gauss:3.716846
160:120:200:data-parallelism:buffer-20:10.547602:record+gauss:4.57854
160:120:200:data-parallelism:buffer-20:8.769205:record+gauss:3.628803
160:120:200:data-parallelism:buffer-20:12.601532:record+gauss:3.741935
160:120:200:data-parallelism:buffer-20:10.313506:record+gauss:4.1767
160:120:200:data-parallelism:buffer-20:12.854425:record+gauss:3.713501
160:120:200:data-parallelism:buffer-20:12.839685:record+gauss:3.762724
640:480:200:task:buffer-20:42.667085:record+gauss:4.286599
640:480:200:task:buffer-20:42.629905:record+gauss:4.193521
640:480:200:task:buffer-20:42.30356:record+gauss:4.259742
640:480:200:task:buffer-20:42.310858:record+gauss:4.180723
640:480:200:task:buffer-20:42.561174:record+gauss:4.236136
640:480:200:task:buffer-20:42.382971:record+gauss:4.230377
640:480:200:task:buffer-20:42.238504:record+gauss:4.269926
640:480:200:task:buffer-20:42.408209:record+gauss:4.218905
640:480:200:task:buffer-20:42.358562:record+gauss:4.245279
640:480:200:task:buffer-20:42.555249:record+gauss:4.188054
640:480:200:task:buffer-20:42.371024:record+gauss:4.233396
640:480:200:task:buffer-20:42.441792:record+gauss:4.193992
320:240:200:task:buffer-20:15.585331:record+gauss:4.182486
320:240:200:task:buffer-20:11.960839:record+gauss:4.14191
320:240:200:task:buffer-20:15.546929:record+gauss:4.642504
320:240:200:task:buffer-20:15.503658:record+gauss:4.63484
320:240:200:task:buffer-20:15.575044:record+gauss:4.656982
320:240:200:task:buffer-20:12.978871:record+gauss:4.158749
320:240:200:task:buffer-20:12.003905:record+gauss:4.148779
320:240:200:task:buffer-20:11.973426:record+gauss:4.586108
320:240:200:task:buffer-20:15.61003:record+gauss:4.162995
320:240:200:task:buffer-20:15.691864:record+gauss:4.14632
160:120:200:task:buffer-20:12.890715:record+gauss:4.165329
160:120:200:task:buffer-20:12.893107:record+gauss:4.623855
160:120:200:task:buffer-20:15.905043:record+gauss:4.158872
160:120:200:task:buffer-20:15.920713:record+gauss:4.151723
160:120:200:task:buffer-20:15.846039:record+gauss:4.144685
160:120:200:task:buffer-20:15.835976:record+gauss:4.658609

