Width:Height:Num_frames:strat:buffer-size:compute_time:operation:ini_time:mapBuffer
1280:720:200:OCL:buffer-10:11.798635:record+gauss:0.235353:yes
1280:720:200:OCL:buffer-10:11.883573:record+gauss:0.272111:yes
1280:720:200:OCL:buffer-10:11.864802:record+gauss:0.269947:yes
1280:720:200:OCL:buffer-10:11.843646:record+gauss:0.269624:yes
1280:720:200:OCL:buffer-10:11.835931:record+gauss:0.264230:yes
1280:720:200:OCL:buffer-10:11.866297:record+gauss:0.269164:yes
1280:720:200:OCL:buffer-10:11.820235:record+gauss:0.268749:yes
1280:720:200:OCL:buffer-10:11.842309:record+gauss:0.273210:yes
1280:720:200:OCL:buffer-10:11.839726:record+gauss:0.270231:yes
1280:720:200:OCL:buffer-10:11.796410:record+gauss:0.269938:yes
1280:720:200:OCL:buffer-10:11.838571:record+gauss:0.268635:yes
1280:720:200:OCL:buffer-10:11.823490:record+gauss:0.267547:yes
1280:720:200:OCL:buffer-10:4.556949:record+grayscale:0.260335:yes
1280:720:200:OCL:buffer-10:4.562292:record+grayscale:0.267118:yes
1280:720:200:OCL:buffer-10:4.678925:record+grayscale:0.266759:yes
1280:720:200:OCL:buffer-10:4.562890:record+grayscale:0.257473:yes
1280:720:200:OCL:buffer-10:4.701227:record+grayscale:0.257447:yes
1280:720:200:OCL:buffer-10:4.609601:record+grayscale:0.260111:yes
1280:720:200:OCL:buffer-10:4.583394:record+grayscale:0.259758:yes
1280:720:200:OCL:buffer-10:4.608825:record+grayscale:0.268872:yes
1280:720:200:OCL:buffer-10:4.651775:record+grayscale:0.266131:yes
1280:720:200:OCL:buffer-10:4.583649:record+grayscale:0.263224:yes
1280:720:200:OCL:buffer-10:4.573020:record+grayscale:0.265069:yes
1280:720:200:OCL:buffer-10:4.545882:record+grayscale:0.259417:yes
1280:720:200:OCL:buffer-10:10.596629:record+gauss:0.229864:no
1280:720:200:OCL:buffer-10:10.631954:record+gauss:0.276817:no
1280:720:200:OCL:buffer-10:10.621649:record+gauss:0.280261:no
1280:720:200:OCL:buffer-10:10.661705:record+gauss:0.272617:no
1280:720:200:OCL:buffer-10:10.596989:record+gauss:0.269726:no
1280:720:200:OCL:buffer-10:10.620434:record+gauss:0.271008:no
1280:720:200:OCL:buffer-10:10.637896:record+gauss:0.280338:no
1280:720:200:OCL:buffer-10:10.604437:record+gauss:0.269438:no
1280:720:200:OCL:buffer-10:10.617083:record+gauss:0.267770:no
1280:720:200:OCL:buffer-10:10.636450:record+gauss:0.278814:no
1280:720:200:OCL:buffer-10:10.715057:record+gauss:0.271953:no
1280:720:200:OCL:buffer-10:10.653501:record+gauss:0.276816:no
1280:720:200:OCL:buffer-10:4.648137:record+grayscale:0.262213:no
1280:720:200:OCL:buffer-10:4.661568:record+grayscale:0.266641:no
1280:720:200:OCL:buffer-10:4.645933:record+grayscale:0.260299:no
1280:720:200:OCL:buffer-10:4.670078:record+grayscale:0.266507:no
1280:720:200:OCL:buffer-10:4.666610:record+grayscale:0.266279:no
1280:720:200:OCL:buffer-10:4.638476:record+grayscale:0.255895:no
1280:720:200:OCL:buffer-10:4.649516:record+grayscale:0.265747:no
1280:720:200:OCL:buffer-10:4.657820:record+grayscale:0.267401:no
1280:720:200:OCL:buffer-10:4.652353:record+grayscale:0.266961:no
1280:720:200:OCL:buffer-10:4.639906:record+grayscale:0.261599:no
1280:720:200:OCL:buffer-10:4.681534:record+grayscale:0.259881:no
1280:720:200:OCL:buffer-10:4.646940:record+grayscale:0.261672:no