Width:Height:num_frames:strat:buffer-size:compute_time:operation:ini_time:version
640:480:200:OMPP:buffer-10:30.142760:record+gauss:0.315256:new
640:480:200:OMPP:buffer-10:30.113507:record+gauss:0.228415:new
640:480:200:OMPP:buffer-10:30.139007:record+gauss:0.228278:new
640:480:200:OMPP:buffer-10:30.123164:record+gauss:0.228108:new
640:480:200:OMPP:buffer-10:30.341476:record+gauss:0.227992:new
640:480:200:OMPP:buffer-10:31.583962:record+gauss:0.228102:new
640:480:200:OMPP:buffer-10:32.665592:record+gauss:0.228201:new
640:480:200:OMPP:buffer-10:33.775322:record+gauss:0.228250:new
640:480:200:OMPP:buffer-10:34.598875:record+gauss:0.228413:new
640:480:200:OMPP:buffer-10:35.080018:record+gauss:0.228680:new
640:480:200:OMPP:buffer-10:35.631673:record+gauss:0.228454:new
640:480:200:OMPP:buffer-10:36.099705:record+gauss:0.228567:new
640:480:200:OMPP:buffer-20:39.064395:record+gauss:4.195548:old
640:480:200:OMPP:buffer-20:39.259049:record+gauss:4.190758:old
640:480:200:OMPP:buffer-20:39.557837:record+gauss:4.184345:old
640:480:200:OMPP:buffer-20:39.037977:record+gauss:4.278691:old
640:480:200:OMPP:buffer-20:39.231547:record+gauss:4.17598:old
640:480:200:OMPP:buffer-20:39.148807:record+gauss:4.38419:old
640:480:200:OMPP:buffer-20:39.20749:record+gauss:4.204155:old
640:480:200:OMPP:buffer-20:39.403399:record+gauss:4.197747:old
640:480:200:OMPP:buffer-20:39.030558:record+gauss:4.282666:old
640:480:200:OMPP:buffer-20:39.320627:record+gauss:4.231933:old
640:480:200:OMPP:buffer-20:39.067462:record+gauss:4.224953:old
640:480:200:OMPP:buffer-20:39.355539:record+gauss:4.605561:old