640:480:200:OMPP:buffer-10:14.292419:record+gauss:0.006187
640:480:200:OMPP:buffer-10:14.039734:record+gauss:0.005977
640:480:200:OMPP:buffer-10:14.065662:record+gauss:0.006138
640:480:200:OMPP:buffer-10:14.032038:record+gauss:0.005997
640:480:200:OMPP:buffer-10:14.000035:record+gauss:0.006127
640:480:200:OMPP:buffer-10:14.355187:record+gauss:0.005960
640:480:200:OMPP:buffer-10:13.970409:record+gauss:0.006044
640:480:200:OMPP:buffer-10:14.226501:record+gauss:0.006021
640:480:200:OMPP:buffer-10:14.329542:record+gauss:0.006126
640:480:200:OMPP:buffer-10:14.374107:record+gauss:0.006116
640:480:200:OMPP:buffer-10:14.482200:record+gauss:0.006192
640:480:200:OMPP:buffer-10:14.409024:record+gauss:0.006114
640:480:200:OMPP:buffer-10:13.629217:record+grayscale:0.006109
640:480:200:OMPP:buffer-10:13.721872:record+grayscale:0.006115
640:480:200:OMPP:buffer-10:13.792642:record+grayscale:0.006020
640:480:200:OMPP:buffer-10:13.884723:record+grayscale:0.005998
640:480:200:OMPP:buffer-10:13.981510:record+grayscale:0.005952
640:480:200:OMPP:buffer-10:13.563922:record+grayscale:0.006113
640:480:200:OMPP:buffer-10:13.942291:record+grayscale:0.006031
640:480:200:OMPP:buffer-10:13.538188:record+grayscale:0.006080
640:480:200:OMPP:buffer-10:13.516711:record+grayscale:0.006359
640:480:200:OMPP:buffer-10:13.846354:record+grayscale:0.006095
640:480:200:OMPP:buffer-10:13.556763:record+grayscale:0.006309
640:480:200:OMPP:buffer-10:13.545546:record+grayscale:0.006083
640:480:200:OMPP:buffer-10:13.839311:record+nofil:0.006258
640:480:200:OMPP:buffer-10:13.846986:record+nofil:0.006184
640:480:200:OMPP:buffer-10:13.959787:record+nofil:0.006274
640:480:200:OMPP:buffer-10:13.926243:record+nofil:0.006191
640:480:200:OMPP:buffer-10:13.917159:record+nofil:0.006220
640:480:200:OMPP:buffer-10:13.958501:record+nofil:0.006068
640:480:200:OMPP:buffer-10:13.924246:record+nofil:0.006115
640:480:200:OMPP:buffer-10:13.971799:record+nofil:0.006155
640:480:200:OMPP:buffer-10:13.960100:record+nofil:0.006308
640:480:200:OMPP:buffer-10:13.946779:record+nofil:0.006357
640:480:200:OMPP:buffer-10:13.862841:record+nofil:0.006202
640:480:200:OMPP:buffer-10:14.359412:record+nofil:0.006111
640:480:200:OMPT:buffer-10:13.628193:record+gauss:0.012028
640:480:200:OMPT:buffer-10:13.624348:record+gauss:0.010477
640:480:200:OMPT:buffer-10:13.655707:record+gauss:0.010592
640:480:200:OMPT:buffer-10:13.911518:record+gauss:0.010318
640:480:200:OMPT:buffer-10:13.994969:record+gauss:0.010346
640:480:200:OMPT:buffer-10:14.392342:record+gauss:0.010571
640:480:200:OMPT:buffer-10:14.405522:record+gauss:0.010644
640:480:200:OMPT:buffer-10:14.689353:record+gauss:0.010545
640:480:200:OMPT:buffer-10:14.821780:record+gauss:0.010354
640:480:200:OMPT:buffer-10:14.911124:record+gauss:0.010282
640:480:200:OMPT:buffer-10:15.090213:record+gauss:0.010455
640:480:200:OMPT:buffer-10:15.267667:record+gauss:0.010347
640:480:200:OMPT:buffer-10:13.454566:record+grayscale:0.010296
640:480:200:OMPT:buffer-10:13.700726:record+grayscale:0.011534
640:480:200:OMPT:buffer-10:13.662265:record+grayscale:0.011101
640:480:200:OMPT:buffer-10:13.439147:record+grayscale:0.011001
640:480:200:OMPT:buffer-10:13.449216:record+grayscale:0.011038
640:480:200:OMPT:buffer-10:13.859270:record+grayscale:0.010955
640:480:200:OMPT:buffer-10:13.466349:record+grayscale:0.010996
640:480:200:OMPT:buffer-10:13.705369:record+grayscale:0.010995
640:480:200:OMPT:buffer-10:13.443284:record+grayscale:0.011079
640:480:200:OMPT:buffer-10:13.587370:record+grayscale:0.011163
640:480:200:OMPT:buffer-10:13.434449:record+grayscale:0.011144
640:480:200:OMPT:buffer-10:13.660079:record+grayscale:0.010961
640:480:200:OMPT:buffer-10:13.678623:record+nofil:0.011124
640:480:200:OMPT:buffer-10:13.781180:record+nofil:0.011877
640:480:200:OMPT:buffer-10:13.842569:record+nofil:0.011896
640:480:200:OMPT:buffer-10:13.691748:record+nofil:0.011847
640:480:200:OMPT:buffer-10:13.946275:record+nofil:0.011859
640:480:200:OMPT:buffer-10:13.799524:record+nofil:0.011747
640:480:200:OMPT:buffer-10:13.698045:record+nofil:0.011781
640:480:200:OMPT:buffer-10:13.686994:record+nofil:0.011980
640:480:200:OMPT:buffer-10:13.813854:record+nofil:0.011822
640:480:200:OMPT:buffer-10:13.809612:record+nofil:0.011844
640:480:200:OMPT:buffer-10:13.793198:record+nofil:0.011844
640:480:200:OMPT:buffer-10:13.787599:record+nofil:0.011820
640:480:200:OMPT:buffer-10:13.731031:record+gauss:0.011876
640:480:200:OMPT:buffer-10:13.777666:record+gauss:0.010327
640:480:200:OMPT:buffer-10:14.030846:record+gauss:0.010368
640:480:200:OMPT:buffer-10:14.354676:record+gauss:0.010288
640:480:200:OMPT:buffer-10:14.536276:record+gauss:0.010286
640:480:200:OMPT:buffer-10:14.855035:record+gauss:0.010410
640:480:200:OMPT:buffer-10:15.125608:record+gauss:0.010317
640:480:200:OMPT:buffer-10:15.171801:record+gauss:0.010291
640:480:200:OMPT:buffer-10:15.320191:record+gauss:0.010319
640:480:200:OMPT:buffer-10:15.454619:record+gauss:0.010448
640:480:200:OMPT:buffer-10:15.594240:record+gauss:0.010426
640:480:200:OMPT:buffer-10:15.721875:record+gauss:0.010364
640:480:200:OMPT:buffer-10:13.472344:record+grayscale:0.010286
640:480:200:OMPT:buffer-10:13.444015:record+grayscale:0.011151
640:480:200:OMPT:buffer-10:13.448544:record+grayscale:0.011116
640:480:200:OMPT:buffer-10:13.448036:record+grayscale:0.011098
640:480:200:OMPT:buffer-10:13.589436:record+grayscale:0.011007
640:480:200:OMPT:buffer-10:13.541885:record+grayscale:0.011223
640:480:200:OMPT:buffer-10:13.457644:record+grayscale:0.011033
640:480:200:OMPT:buffer-10:13.456976:record+grayscale:0.011085
640:480:200:OMPT:buffer-10:13.454294:record+grayscale:0.011104
640:480:200:OMPT:buffer-10:13.460097:record+grayscale:0.010962
640:480:200:OMPT:buffer-10:13.705620:record+grayscale:0.011289
640:480:200:OMPT:buffer-10:13.727200:record+grayscale:0.010992
640:480:200:OMPT:buffer-10:13.779714:record+nofil:0.011264
640:480:200:OMPT:buffer-10:13.736874:record+nofil:0.011839
640:480:200:OMPT:buffer-10:13.801673:record+nofil:0.011992
640:480:200:OMPT:buffer-10:13.710978:record+nofil:0.011657
640:480:200:OMPT:buffer-10:13.790797:record+nofil:0.011636
640:480:200:OMPT:buffer-10:13.698314:record+nofil:0.011978
640:480:200:OMPT:buffer-10:13.795581:record+nofil:0.011902
640:480:200:OMPT:buffer-10:13.794300:record+nofil:0.011800
640:480:200:OMPT:buffer-10:13.782960:record+nofil:0.011775
640:480:200:OMPT:buffer-10:13.874449:record+nofil:0.011770
640:480:200:OMPT:buffer-10:13.924769:record+nofil:0.011933
640:480:200:OMPT:buffer-10:13.729763:record+nofil:0.011906
