width:height:num_frames:strat:buffersize:compute_time:operation:ini_time:platform
640:480:100:OCL:buffer-10:9.054855:record+gauss:1.238964:cpu
640:480:100:OCL:buffer-10:9.023487:record+gauss:1.201345:cpu
640:480:100:OCL:buffer-10:8.759719:record+gauss:1.238267:cpu
640:480:100:OCL:buffer-10:9.071310:record+gauss:1.211764:cpu
640:480:100:OCL:buffer-10:8.929364:record+gauss:1.222735:cpu
640:480:100:OCL:buffer-10:8.779092:record+gauss:1.208631:cpu
640:480:100:OCL:buffer-10:9.015060:record+gauss:1.241917:cpu
640:480:100:OCL:buffer-10:8.993799:record+gauss:1.194693:cpu
640:480:100:OCL:buffer-10:9.060222:record+gauss:1.228936:cpu
640:480:100:OCL:buffer-10:9.079302:record+gauss:1.231920:cpu
640:480:100:OCL:buffer-10:9.112811:record+gauss:1.220641:cpu
640:480:100:OCL:buffer-10:9.015849:record+gauss:1.217395:cpu
640:480:100:OCL:buffer-10:6.544668:record+grayscale:1.208979:cpu
640:480:100:OCL:buffer-10:6.385944:record+grayscale:1.243226:cpu
640:480:100:OCL:buffer-10:6.440039:record+grayscale:1.224820:cpu
640:480:100:OCL:buffer-10:6.503872:record+grayscale:1.207014:cpu
640:480:100:OCL:buffer-10:6.450648:record+grayscale:1.205033:cpu
640:480:100:OCL:buffer-10:6.510164:record+grayscale:1.207512:cpu
640:480:100:OCL:buffer-10:6.344626:record+grayscale:1.228701:cpu
640:480:100:OCL:buffer-10:6.387003:record+grayscale:1.224310:cpu
640:480:100:OCL:buffer-10:6.362128:record+grayscale:1.233891:cpu
640:480:100:OCL:buffer-10:6.351513:record+grayscale:1.212742:cpu
640:480:100:OCL:buffer-10:6.355896:record+grayscale:1.213200:cpu
640:480:100:OCL:buffer-10:6.356421:record+grayscale:1.220293:cpu
640:480:100:OCL:buffer-10:186.636549:record+gauss:14.823267:gpu
640:480:100:OCL:buffer-10:186.764437:record+gauss:14.148768:gpu
640:480:100:OCL:buffer-10:186.731334:record+gauss:14.190410:gpu
640:480:100:OCL:buffer-10:186.690629:record+gauss:14.769334:gpu
640:480:100:OCL:buffer-10:186.694637:record+gauss:14.316152:gpu
640:480:100:OCL:buffer-10:186.701189:record+gauss:14.107402:gpu
640:480:100:OCL:buffer-10:186.597466:record+gauss:14.456308:gpu
640:480:100:OCL:buffer-10:186.445888:record+gauss:12.840509:gpu
640:480:100:OCL:buffer-10:186.733150:record+gauss:14.292650:gpu
640:480:100:OCL:buffer-10:186.636170:record+gauss:14.142260:gpu
640:480:100:OCL:buffer-10:186.563134:record+gauss:14.052376:gpu
640:480:100:OCL:buffer-10:186.716256:record+gauss:14.164352:gpu
640:480:100:OCL:buffer-10:28.785437:record+grayscale:3.532500:gpu
640:480:100:OCL:buffer-10:28.791490:record+grayscale:3.584580:gpu
640:480:100:OCL:buffer-10:28.825977:record+grayscale:3.477490:gpu
640:480:100:OCL:buffer-10:28.883322:record+grayscale:3.560818:gpu
640:480:100:OCL:buffer-10:28.931270:record+grayscale:3.703338:gpu
640:480:100:OCL:buffer-10:28.958956:record+grayscale:3.521913:gpu
640:480:100:OCL:buffer-10:28.859805:record+grayscale:3.544018:gpu
640:480:100:OCL:buffer-10:28.951992:record+grayscale:3.578406:gpu
640:480:100:OCL:buffer-10:28.977990:record+grayscale:3.559890:gpu
640:480:100:OCL:buffer-10:28.953425:record+grayscale:3.541982:gpu
640:480:100:OCL:buffer-10:28.787769:record+grayscale:3.486562:gpu
640:480:100:OCL:buffer-10:28.957124:record+grayscale:3.518263:gpu
640:480:200:OCL:buffer-10:17.744976:record+gauss:1.338116:cpu
640:480:200:OCL:buffer-10:17.765166:record+gauss:2.072366:cpu
640:480:200:OCL:buffer-10:17.678471:record+gauss:1.232133:cpu
640:480:200:OCL:buffer-10:17.623060:record+gauss:1.211113:cpu
640:480:200:OCL:buffer-10:17.654948:record+gauss:1.208701:cpu
640:480:200:OCL:buffer-10:17.764472:record+gauss:1.219806:cpu
640:480:200:OCL:buffer-10:17.717978:record+gauss:1.223801:cpu
640:480:200:OCL:buffer-10:18.035535:record+gauss:1.210771:cpu
640:480:200:OCL:buffer-10:18.289787:record+gauss:1.284542:cpu
640:480:200:OCL:buffer-10:18.415270:record+gauss:1.266830:cpu
640:480:200:OCL:buffer-10:18.885321:record+gauss:1.227929:cpu
640:480:200:OCL:buffer-10:19.001296:record+gauss:1.219266:cpu
640:480:200:OCL:buffer-10:13.003951:record+grayscale:1.261875:cpu
640:480:200:OCL:buffer-10:12.726187:record+grayscale:1.264321:cpu
640:480:200:OCL:buffer-10:12.788967:record+grayscale:1.255817:cpu
640:480:200:OCL:buffer-10:13.020630:record+grayscale:1.259041:cpu
640:480:200:OCL:buffer-10:12.713638:record+grayscale:1.212085:cpu
640:480:200:OCL:buffer-10:12.724744:record+grayscale:1.267080:cpu
640:480:200:OCL:buffer-10:13.070010:record+grayscale:1.200227:cpu
640:480:200:OCL:buffer-10:12.762145:record+grayscale:1.246277:cpu
640:480:200:OCL:buffer-10:13.809172:record+grayscale:1.220438:cpu
640:480:200:OCL:buffer-10:12.774624:record+grayscale:1.289997:cpu
640:480:200:OCL:buffer-10:12.800274:record+grayscale:1.284948:cpu
640:480:200:OCL:buffer-10:12.739518:record+grayscale:1.233127:cpu
640:480:200:OCL:buffer-10:375.144690:record+gauss:14.755626:gpu
640:480:200:OCL:buffer-10:375.112955:record+gauss:14.823977:gpu
640:480:200:OCL:buffer-10:375.065083:record+gauss:14.074309:gpu
640:480:200:OCL:buffer-10:375.046374:record+gauss:14.204565:gpu
640:480:200:OCL:buffer-10:374.893754:record+gauss:14.156978:gpu
640:480:200:OCL:buffer-10:374.927689:record+gauss:14.287738:gpu
640:480:200:OCL:buffer-10:375.205611:record+gauss:14.254617:gpu
640:480:200:OCL:buffer-10:374.897342:record+gauss:14.119804:gpu
640:480:200:OCL:buffer-10:375.163652:record+gauss:14.371554:gpu
640:480:200:OCL:buffer-10:374.887246:record+gauss:14.725928:gpu
640:480:200:OCL:buffer-10:374.815347:record+gauss:13.478258:gpu
640:480:200:OCL:buffer-10:374.906886:record+gauss:14.175512:gpu
640:480:200:OCL:buffer-10:57.847946:record+grayscale:3.544335:gpu
640:480:200:OCL:buffer-10:57.983574:record+grayscale:3.516174:gpu
640:480:200:OCL:buffer-10:57.921665:record+grayscale:3.553732:gpu
640:480:200:OCL:buffer-10:58.048537:record+grayscale:3.552018:gpu
640:480:200:OCL:buffer-10:58.205023:record+grayscale:3.505493:gpu
640:480:200:OCL:buffer-10:57.760795:record+grayscale:3.554169:gpu
640:480:200:OCL:buffer-10:57.795511:record+grayscale:3.587285:gpu
640:480:200:OCL:buffer-10:58.072540:record+grayscale:3.607361:gpu
640:480:200:OCL:buffer-10:57.759915:record+grayscale:3.616251:gpu
640:480:200:OCL:buffer-10:58.157139:record+grayscale:3.599636:gpu
640:480:200:OCL:buffer-10:57.889093:record+grayscale:3.582285:gpu
640:480:200:OCL:buffer-10:58.146308:record+grayscale:3.583524:gpu
640:480:300:OCL:buffer-10:26.985255:record+gauss:1.236947:cpu
640:480:300:OCL:buffer-10:28.841851:record+gauss:1.208438:cpu
640:480:300:OCL:buffer-10:30.041658:record+gauss:1.217761:cpu
640:480:300:OCL:buffer-10:30.910831:record+gauss:1.210735:cpu
640:480:300:OCL:buffer-10:31.518256:record+gauss:1.222731:cpu
640:480:300:OCL:buffer-10:32.097045:record+gauss:1.250528:cpu
640:480:300:OCL:buffer-10:32.824685:record+gauss:1.216632:cpu
640:480:300:OCL:buffer-10:32.951688:record+gauss:1.220341:cpu
640:480:300:OCL:buffer-10:33.682742:record+gauss:1.239572:cpu
640:480:300:OCL:buffer-10:33.974353:record+gauss:1.202367:cpu
640:480:300:OCL:buffer-10:34.322189:record+gauss:1.381714:cpu
640:480:300:OCL:buffer-10:34.665702:record+gauss:1.265146:cpu
640:480:300:OCL:buffer-10:19.818041:record+grayscale:1.238478:cpu
640:480:300:OCL:buffer-10:19.626854:record+grayscale:1.231913:cpu
640:480:300:OCL:buffer-10:19.803824:record+grayscale:1.215155:cpu
640:480:300:OCL:buffer-10:19.380711:record+grayscale:1.230065:cpu
640:480:300:OCL:buffer-10:20.057978:record+grayscale:1.203155:cpu
640:480:300:OCL:buffer-10:19.292488:record+grayscale:1.226970:cpu
640:480:300:OCL:buffer-10:19.499164:record+grayscale:1.199596:cpu
640:480:300:OCL:buffer-10:20.243621:record+grayscale:1.212791:cpu
640:480:300:OCL:buffer-10:21.061198:record+grayscale:1.191038:cpu
640:480:300:OCL:buffer-10:19.896351:record+grayscale:1.220928:cpu
640:480:300:OCL:buffer-10:19.633928:record+grayscale:1.214997:cpu
640:480:300:OCL:buffer-10:19.649384:record+grayscale:1.204894:cpu
640:480:300:OCL:buffer-10:563.381677:record+gauss:14.122350:gpu
640:480:300:OCL:buffer-10:563.717956:record+gauss:14.036051:gpu
640:480:300:OCL:buffer-10:563.484873:record+gauss:14.236990:gpu
640:480:300:OCL:buffer-10:563.517599:record+gauss:14.776559:gpu
640:480:300:OCL:buffer-10:563.672771:record+gauss:14.337977:gpu
640:480:300:OCL:buffer-10:563.258911:record+gauss:14.151320:gpu
640:480:300:OCL:buffer-10:563.712122:record+gauss:14.182183:gpu
640:480:300:OCL:buffer-10:563.719169:record+gauss:14.119901:gpu
640:480:300:OCL:buffer-10:86.918993:record+grayscale:7.544599:gpu
640:480:300:OCL:buffer-10:86.897519:record+grayscale:3.581151:gpu
640:480:300:OCL:buffer-10:86.945771:record+grayscale:3.569312:gpu
640:480:300:OCL:buffer-10:87.122700:record+grayscale:3.527037:gpu
640:480:300:OCL:buffer-10:86.731465:record+grayscale:3.538101:gpu
640:480:300:OCL:buffer-10:86.779143:record+grayscale:3.578517:gpu
640:480:300:OCL:buffer-10:87.030781:record+grayscale:3.535123:gpu
640:480:300:OCL:buffer-10:87.145844:record+grayscale:3.601329:gpu
640:480:300:OCL:buffer-10:86.944656:record+grayscale:3.517813:gpu
640:480:300:OCL:buffer-10:86.744931:record+grayscale:3.629200:gpu
640:480:300:OCL:buffer-10:86.982221:record+grayscale:3.587161:gpu
640:480:300:OCL:buffer-10:86.736709:record+grayscale:3.524819:gpu