Width:Height:Num_frames:strat:buffer-size:compute_time:operation:ini_time:libUsed
640:480:200:task:20:34.908387:record+gauss:4.181362:opencv
640:480:200:task:20:34.982572:record+gauss:4.177697:opencv
640:480:200:task:20:35.179765:record+gauss:4.184958:opencv
640:480:200:task:20:35.116597:record+gauss:4.177339:opencv
640:480:200:task:20:34.858486:record+gauss:4.1737:opencv
640:480:200:task:20:34.841118:record+gauss:4.252096:opencv
640:480:200:task:20:34.933753:record+gauss:4.217404:opencv
640:480:200:task:20:35.103506:record+gauss:4.182599:opencv
640:480:200:task:20:35.15772:record+gauss:4.175715:opencv
640:480:200:task:20:34.809911:record+gauss:4.205614:opencv
640:480:200:task:20:35.367721:record+gauss:4.178753:opencv
640:480:200:task:20:34.99453:record+gauss:4.194485:opencv
640:480:200:task:20:34.794445:record+gauss:4.503343:opencv
640:480:200:task:20:35.531366:record+gauss:4.181102:opencv
640:480:200:task:20:35.680088:record+gauss:4.181063:opencv
640:480:200:task:20:35.720635:record+gauss:4.186182:opencv
640:480:200:task:20:36.038624:record+gauss:4.173866:opencv
640:480:200:task:20:34.937941:record+gauss:4.210645:opencv
640:480:200:task:20:34.883427:record+gauss:4.189846:opencv
640:480:200:task:20:35.156668:record+gauss:4.213466:opencv
640:480:200:task:20:34.988421:record+gauss:4.216537:opencv
640:480:200:task:20:34.718578:record+gauss:4.183153:opencv
640:480:200:task:20:34.572094:record+gauss:4.216456:opencv
640:480:200:task:20:34.768484:record+gauss:4.181282:opencv
