Width:Height:numFrames:version:buffersize:computeTime:filter:iniTime:frameTime:StoreTime:nothing
640:480:200:task:buffer-10:19.441324:record+gauss:1.603873:0.013527:0.002090:0.000000
640:480:200:task:buffer-10:19.314083:record+gauss:1.552695:0.012643:0.001904:0.000000
640:480:200:task:buffer-10:19.295288:record+gauss:1.527574:0.013379:0.002005:0.000000
640:480:200:task:buffer-10:20.399943:record+gauss:1.571028:0.012797:0.001806:0.000000
640:480:200:task:buffer-10:19.432117:record+gauss:1.583452:0.012357:0.002015:0.000000
640:480:200:task:buffer-10:19.476477:record+gauss:1.556917:0.013386:0.001789:0.000000
640:480:200:task:buffer-10:19.230533:record+gauss:1.525005:0.015401:0.001797:0.000000
640:480:200:task:buffer-10:19.337615:record+gauss:1.585950:0.014716:0.001933:0.000000
640:480:200:task:buffer-10:19.508345:record+gauss:1.575737:0.012987:0.001943:0.000000
640:480:200:task:buffer-10:19.452684:record+gauss:1.537503:0.013410:0.001990:0.000000
640:480:200:task:buffer-10:19.783151:record+gauss:1.511590:0.013370:0.001930:0.000000
640:480:200:task:buffer-10:20.059764:record+gauss:1.533035:0.012746:0.002039:0.000000
640:480:200:task:buffer-10:14.731186:record+grayscale:1.547792:0.064299:0.005203:0.000000
640:480:200:task:buffer-10:15.616220:record+grayscale:1.517097:0.044503:0.004534:0.000000
640:480:200:task:buffer-10:15.851053:record+grayscale:1.571574:0.040878:0.005176:0.000000
640:480:200:task:buffer-10:14.858606:record+grayscale:1.540039:0.032331:0.001464:0.000000
640:480:200:task:buffer-10:14.974603:record+grayscale:1.528144:0.063255:0.005444:0.000000
640:480:200:task:buffer-10:14.508391:record+grayscale:1.574677:0.063040:0.006287:0.000000
640:480:200:task:buffer-10:14.746847:record+grayscale:1.581661:0.066895:0.003043:0.000000
640:480:200:task:buffer-10:14.820377:record+grayscale:1.543112:0.067638:0.001356:0.000000
640:480:200:task:buffer-10:14.851038:record+grayscale:1.532812:0.064666:0.001191:0.000000
640:480:200:task:buffer-10:13.999717:record+grayscale:2.581003:0.062273:0.001642:0.000000
640:480:200:task:buffer-10:15.344000:record+grayscale:1.556781:0.053709:0.003830:0.000000
640:480:200:task:buffer-10:14.513408:record+grayscale:1.571571:0.068342:0.001636:0.000000
640:480:200:task:buffer-10:17.371571:record+nofil:0.573352:0.035134:0.001459:0.000000
640:480:200:task:buffer-10:16.022637:record+nofil:0.571912:0.062166:0.001216:0.000000
640:480:200:task:buffer-10:15.710113:record+nofil:0.571536:0.074855:0.000948:0.000000
640:480:200:task:buffer-10:17.313219:record+nofil:0.570889:0.019800:0.001596:0.000000
640:480:200:task:buffer-10:15.503890:record+nofil:0.567782:0.074206:0.000923:0.000000
640:480:200:task:buffer-10:17.243158:record+nofil:0.566773:0.020772:0.001566:0.000000
640:480:200:task:buffer-10:16.143201:record+nofil:0.565777:0.067008:0.000998:0.000000
640:480:200:task:buffer-10:15.586524:record+nofil:0.566007:0.074191:0.000935:0.000000
640:480:200:task:buffer-10:15.531312:record+nofil:0.568038:0.074180:0.000961:0.000000
640:480:200:task:buffer-10:15.910596:record+nofil:0.567714:0.068581:0.001077:0.000000
640:480:200:task:buffer-10:15.606178:record+nofil:0.564250:0.074195:0.000946:0.000000
640:480:200:task:buffer-10:15.603818:record+nofil:0.566159:0.074198:0.000943:0.000000
