640:480:200:no-omp:buffer-20:12.797921:record:5.041356
640:480:200:no-omp:buffer-20:12.862271:record:4.996098
640:480:200:no-omp:buffer-20:12.929783:record:4.996674
640:480:200:no-omp:buffer-20:12.862477:record:5.020383
640:480:200:no-omp:buffer-20:12.865900:record:4.964342
640:480:200:no-omp:buffer-20:9.954964:record:4.983794
640:480:200:no-omp:buffer-20:12.401761:record:4.977560
640:480:200:no-omp:buffer-20:12.484941:record:4.965086
640:480:200:no-omp:buffer-20:9.826542:record:4.976948
640:480:200:no-omp:buffer-20:9.869070:record:5.124993
640:480:200:no-omp:buffer-20:9.924212:record:4.983320
640:480:200:no-omp:buffer-20:9.789864:record:5.029334
640:480:100:no-omp:buffer-20:4.868229:record:4.962965
640:480:100:no-omp:buffer-20:4.815243:record:4.980317
640:480:100:no-omp:buffer-20:5.004807:record:5.046601
640:480:100:no-omp:buffer-20:4.878953:record:4.980212
640:480:100:no-omp:buffer-20:4.829133:record:4.957730
640:480:100:no-omp:buffer-20:4.878791:record:4.980947
640:480:100:no-omp:buffer-20:4.867458:record:4.975355
640:480:100:no-omp:buffer-20:4.758040:record:4.993302
640:480:100:no-omp:buffer-20:4.807941:record:5.049847
640:480:100:no-omp:buffer-20:4.807958:record:5.073135
640:480:100:no-omp:buffer-20:4.811244:record:5.061222
640:480:100:no-omp:buffer-20:4.915193:record:4.983432
